%YAML 1.1
%TAG !u! tag:unity3d.com,2011:
--- !u!1001 &3689707860891312705
PrefabInstance:
  m_ObjectHideFlags: 0
  serializedVersion: 2
  m_Modification:
    m_TransformParent: {fileID: 0}
    m_Modifications:
    - target: {fileID: -8770519468815342434, guid: 92c5802379f5ca743bd6ae3b570b9cb8,
        type: 3}
      propertyPath: m_Layer
      value: 10
      objectReference: {fileID: 0}
    - target: {fileID: -8770519468815342434, guid: 92c5802379f5ca743bd6ae3b570b9cb8,
        type: 3}
      propertyPath: m_IsActive
      value: 1
      objectReference: {fileID: 0}
    - target: {fileID: -8679921383154817045, guid: 92c5802379f5ca743bd6ae3b570b9cb8,
        type: 3}
      propertyPath: m_LocalPosition.x
      value: 0
      objectReference: {fileID: 0}
    - target: {fileID: -8679921383154817045, guid: 92c5802379f5ca743bd6ae3b570b9cb8,
        type: 3}
      propertyPath: m_LocalPosition.y
      value: 0
      objectReference: {fileID: 0}
    - target: {fileID: -8679921383154817045, guid: 92c5802379f5ca743bd6ae3b570b9cb8,
        type: 3}
      propertyPath: m_LocalPosition.z
      value: 0
      objectReference: {fileID: 0}
    - target: {fileID: -8679921383154817045, guid: 92c5802379f5ca743bd6ae3b570b9cb8,
        type: 3}
      propertyPath: m_LocalRotation.x
      value: 0
      objectReference: {fileID: 0}
    - target: {fileID: -8679921383154817045, guid: 92c5802379f5ca743bd6ae3b570b9cb8,
        type: 3}
      propertyPath: m_LocalRotation.y
      value: 0
      objectReference: {fileID: 0}
    - target: {fileID: -8679921383154817045, guid: 92c5802379f5ca743bd6ae3b570b9cb8,
        type: 3}
      propertyPath: m_LocalRotation.z
      value: 0
      objectReference: {fileID: 0}
    - target: {fileID: -8679921383154817045, guid: 92c5802379f5ca743bd6ae3b570b9cb8,
        type: 3}
      propertyPath: m_LocalRotation.w
      value: 1
      objectReference: {fileID: 0}
    - target: {fileID: -8679921383154817045, guid: 92c5802379f5ca743bd6ae3b570b9cb8,
        type: 3}
      propertyPath: m_RootOrder
      value: 0
      objectReference: {fileID: 0}
    - target: {fileID: -8679921383154817045, guid: 92c5802379f5ca743bd6ae3b570b9cb8,
        type: 3}
      propertyPath: m_LocalEulerAnglesHint.x
      value: 0
      objectReference: {fileID: 0}
    - target: {fileID: -8679921383154817045, guid: 92c5802379f5ca743bd6ae3b570b9cb8,
        type: 3}
      propertyPath: m_LocalEulerAnglesHint.y
      value: 0
      objectReference: {fileID: 0}
    - target: {fileID: -8679921383154817045, guid: 92c5802379f5ca743bd6ae3b570b9cb8,
        type: 3}
      propertyPath: m_LocalEulerAnglesHint.z
      value: 0
      objectReference: {fileID: 0}
    - target: {fileID: -8136955083569362138, guid: 92c5802379f5ca743bd6ae3b570b9cb8,
        type: 3}
      propertyPath: m_Layer
      value: 8
      objectReference: {fileID: 0}
    - target: {fileID: -8136955083569362138, guid: 92c5802379f5ca743bd6ae3b570b9cb8,
        type: 3}
      propertyPath: m_IsActive
      value: 1
      objectReference: {fileID: 0}
    - target: {fileID: -7452077387868879568, guid: 92c5802379f5ca743bd6ae3b570b9cb8,
        type: 3}
      propertyPath: m_Layer
      value: 8
      objectReference: {fileID: 0}
    - target: {fileID: -7279734386278441214, guid: 92c5802379f5ca743bd6ae3b570b9cb8,
        type: 3}
      propertyPath: m_Layer
      value: 8
      objectReference: {fileID: 0}
    - target: {fileID: -7269639409073236308, guid: 92c5802379f5ca743bd6ae3b570b9cb8,
        type: 3}
      propertyPath: m_Layer
      value: 8
      objectReference: {fileID: 0}
    - target: {fileID: -7112203569201559600, guid: 92c5802379f5ca743bd6ae3b570b9cb8,
        type: 3}
      propertyPath: m_Layer
      value: 8
      objectReference: {fileID: 0}
    - target: {fileID: -6928484812363768200, guid: 92c5802379f5ca743bd6ae3b570b9cb8,
        type: 3}
      propertyPath: m_Layer
      value: 8
      objectReference: {fileID: 0}
    - target: {fileID: -6491181157299060474, guid: 92c5802379f5ca743bd6ae3b570b9cb8,
        type: 3}
      propertyPath: m_Layer
      value: 8
      objectReference: {fileID: 0}
    - target: {fileID: -6250122386864834468, guid: 92c5802379f5ca743bd6ae3b570b9cb8,
        type: 3}
      propertyPath: m_Layer
      value: 8
      objectReference: {fileID: 0}
    - target: {fileID: -6002267917383411498, guid: 92c5802379f5ca743bd6ae3b570b9cb8,
        type: 3}
      propertyPath: m_Layer
      value: 8
      objectReference: {fileID: 0}
    - target: {fileID: -5910477364168991689, guid: 92c5802379f5ca743bd6ae3b570b9cb8,
        type: 3}
      propertyPath: m_Layer
      value: 8
      objectReference: {fileID: 0}
    - target: {fileID: -5148233158295749719, guid: 92c5802379f5ca743bd6ae3b570b9cb8,
        type: 3}
      propertyPath: m_Layer
      value: 8
      objectReference: {fileID: 0}
    - target: {fileID: -4554710447381833590, guid: 92c5802379f5ca743bd6ae3b570b9cb8,
        type: 3}
      propertyPath: m_Layer
      value: 8
      objectReference: {fileID: 0}
    - target: {fileID: -3156571694303954883, guid: 92c5802379f5ca743bd6ae3b570b9cb8,
        type: 3}
      propertyPath: m_Layer
      value: 8
      objectReference: {fileID: 0}
    - target: {fileID: -2604911511728774179, guid: 92c5802379f5ca743bd6ae3b570b9cb8,
        type: 3}
      propertyPath: m_Layer
      value: 10
      objectReference: {fileID: 0}
    - target: {fileID: -2238492348787959365, guid: 92c5802379f5ca743bd6ae3b570b9cb8,
        type: 3}
      propertyPath: m_Layer
      value: 8
      objectReference: {fileID: 0}
    - target: {fileID: -1898246078330994158, guid: 92c5802379f5ca743bd6ae3b570b9cb8,
        type: 3}
      propertyPath: m_Layer
      value: 8
      objectReference: {fileID: 0}
    - target: {fileID: -1825491393111451198, guid: 92c5802379f5ca743bd6ae3b570b9cb8,
        type: 3}
      propertyPath: m_Layer
      value: 8
      objectReference: {fileID: 0}
    - target: {fileID: -1821107516298258674, guid: 92c5802379f5ca743bd6ae3b570b9cb8,
        type: 3}
      propertyPath: m_Layer
      value: 8
      objectReference: {fileID: 0}
    - target: {fileID: -1476003738909904778, guid: 92c5802379f5ca743bd6ae3b570b9cb8,
        type: 3}
      propertyPath: m_Layer
      value: 8
      objectReference: {fileID: 0}
    - target: {fileID: -1322353136115851795, guid: 92c5802379f5ca743bd6ae3b570b9cb8,
        type: 3}
      propertyPath: m_Layer
      value: 8
      objectReference: {fileID: 0}
    - target: {fileID: -1206651232929723814, guid: 92c5802379f5ca743bd6ae3b570b9cb8,
        type: 3}
      propertyPath: m_Layer
      value: 8
      objectReference: {fileID: 0}
    - target: {fileID: -1159361400079333048, guid: 92c5802379f5ca743bd6ae3b570b9cb8,
        type: 3}
      propertyPath: m_Layer
      value: 8
      objectReference: {fileID: 0}
    - target: {fileID: -812650079937207617, guid: 92c5802379f5ca743bd6ae3b570b9cb8,
        type: 3}
      propertyPath: m_Layer
      value: 8
      objectReference: {fileID: 0}
    - target: {fileID: -738459994069347169, guid: 92c5802379f5ca743bd6ae3b570b9cb8,
        type: 3}
      propertyPath: m_Layer
      value: 8
      objectReference: {fileID: 0}
    - target: {fileID: -125525711361971493, guid: 92c5802379f5ca743bd6ae3b570b9cb8,
        type: 3}
      propertyPath: m_Layer
      value: 8
      objectReference: {fileID: 0}
    - target: {fileID: 100254580714135938, guid: 92c5802379f5ca743bd6ae3b570b9cb8,
        type: 3}
      propertyPath: m_Layer
      value: 8
      objectReference: {fileID: 0}
    - target: {fileID: 796791120761443060, guid: 92c5802379f5ca743bd6ae3b570b9cb8,
        type: 3}
      propertyPath: m_Layer
      value: 8
      objectReference: {fileID: 0}
    - target: {fileID: 919132149155446097, guid: 92c5802379f5ca743bd6ae3b570b9cb8,
        type: 3}
      propertyPath: m_Name
      value: female_sport_outfit
      objectReference: {fileID: 0}
    - target: {fileID: 919132149155446097, guid: 92c5802379f5ca743bd6ae3b570b9cb8,
        type: 3}
      propertyPath: m_Layer
      value: 8
      objectReference: {fileID: 0}
    - target: {fileID: 981132403036937255, guid: 92c5802379f5ca743bd6ae3b570b9cb8,
        type: 3}
      propertyPath: m_Layer
      value: 8
      objectReference: {fileID: 0}
    - target: {fileID: 1352883016842002118, guid: 92c5802379f5ca743bd6ae3b570b9cb8,
        type: 3}
      propertyPath: m_Layer
      value: 8
      objectReference: {fileID: 0}
    - target: {fileID: 1363422897108166601, guid: 92c5802379f5ca743bd6ae3b570b9cb8,
        type: 3}
      propertyPath: m_Layer
      value: 8
      objectReference: {fileID: 0}
    - target: {fileID: 2246000192524486727, guid: 92c5802379f5ca743bd6ae3b570b9cb8,
        type: 3}
      propertyPath: m_Layer
      value: 8
      objectReference: {fileID: 0}
    - target: {fileID: 2571316908453612812, guid: 92c5802379f5ca743bd6ae3b570b9cb8,
        type: 3}
      propertyPath: m_Layer
      value: 8
      objectReference: {fileID: 0}
    - target: {fileID: 2665462999245420034, guid: 92c5802379f5ca743bd6ae3b570b9cb8,
        type: 3}
      propertyPath: m_Layer
      value: 8
      objectReference: {fileID: 0}
    - target: {fileID: 3434306505981738357, guid: 92c5802379f5ca743bd6ae3b570b9cb8,
        type: 3}
      propertyPath: m_Layer
      value: 8
      objectReference: {fileID: 0}
    - target: {fileID: 3476347376956483538, guid: 92c5802379f5ca743bd6ae3b570b9cb8,
        type: 3}
      propertyPath: m_Layer
      value: 8
      objectReference: {fileID: 0}
    - target: {fileID: 3623500673177413399, guid: 92c5802379f5ca743bd6ae3b570b9cb8,
        type: 3}
      propertyPath: m_Layer
      value: 8
      objectReference: {fileID: 0}
    - target: {fileID: 3757143085338464918, guid: 92c5802379f5ca743bd6ae3b570b9cb8,
        type: 3}
      propertyPath: m_Layer
      value: 8
      objectReference: {fileID: 0}
    - target: {fileID: 3895169774656235958, guid: 92c5802379f5ca743bd6ae3b570b9cb8,
        type: 3}
      propertyPath: m_Layer
      value: 8
      objectReference: {fileID: 0}
    - target: {fileID: 4087375705752209773, guid: 92c5802379f5ca743bd6ae3b570b9cb8,
        type: 3}
      propertyPath: m_Layer
      value: 8
      objectReference: {fileID: 0}
    - target: {fileID: 4573040765089286220, guid: 92c5802379f5ca743bd6ae3b570b9cb8,
        type: 3}
      propertyPath: m_Layer
      value: 8
      objectReference: {fileID: 0}
    - target: {fileID: 5031371587700950054, guid: 92c5802379f5ca743bd6ae3b570b9cb8,
        type: 3}
      propertyPath: m_Layer
      value: 8
      objectReference: {fileID: 0}
    - target: {fileID: 5175131732469970648, guid: 92c5802379f5ca743bd6ae3b570b9cb8,
        type: 3}
      propertyPath: m_Layer
      value: 8
      objectReference: {fileID: 0}
    - target: {fileID: 5472794241336286304, guid: 92c5802379f5ca743bd6ae3b570b9cb8,
        type: 3}
      propertyPath: m_Layer
      value: 8
      objectReference: {fileID: 0}
    - target: {fileID: 5549041356637121169, guid: 92c5802379f5ca743bd6ae3b570b9cb8,
        type: 3}
      propertyPath: m_Layer
      value: 8
      objectReference: {fileID: 0}
    - target: {fileID: 5575418648375436263, guid: 92c5802379f5ca743bd6ae3b570b9cb8,
        type: 3}
      propertyPath: m_Layer
      value: 8
      objectReference: {fileID: 0}
    - target: {fileID: 5611336093874950984, guid: 92c5802379f5ca743bd6ae3b570b9cb8,
        type: 3}
      propertyPath: m_Layer
      value: 8
      objectReference: {fileID: 0}
    - target: {fileID: 5982461011174173034, guid: 92c5802379f5ca743bd6ae3b570b9cb8,
        type: 3}
      propertyPath: m_Layer
      value: 8
      objectReference: {fileID: 0}
    - target: {fileID: 6188077276639927292, guid: 92c5802379f5ca743bd6ae3b570b9cb8,
        type: 3}
      propertyPath: m_Layer
      value: 8
      objectReference: {fileID: 0}
    - target: {fileID: 6403336010562988420, guid: 92c5802379f5ca743bd6ae3b570b9cb8,
        type: 3}
      propertyPath: m_Layer
      value: 8
      objectReference: {fileID: 0}
    - target: {fileID: 6985245083583810574, guid: 92c5802379f5ca743bd6ae3b570b9cb8,
        type: 3}
      propertyPath: m_Layer
      value: 8
      objectReference: {fileID: 0}
    - target: {fileID: 7680102592698436737, guid: 92c5802379f5ca743bd6ae3b570b9cb8,
        type: 3}
      propertyPath: m_Layer
      value: 8
      objectReference: {fileID: 0}
    - target: {fileID: 7759848760463301437, guid: 92c5802379f5ca743bd6ae3b570b9cb8,
        type: 3}
      propertyPath: m_Layer
      value: 8
      objectReference: {fileID: 0}
    - target: {fileID: 8073255702274683148, guid: 92c5802379f5ca743bd6ae3b570b9cb8,
        type: 3}
      propertyPath: m_Layer
      value: 8
      objectReference: {fileID: 0}
    - target: {fileID: 8592227630919985620, guid: 92c5802379f5ca743bd6ae3b570b9cb8,
        type: 3}
      propertyPath: m_Layer
      value: 8
      objectReference: {fileID: 0}
    - target: {fileID: 8830213056967929264, guid: 92c5802379f5ca743bd6ae3b570b9cb8,
        type: 3}
      propertyPath: m_Layer
      value: 8
      objectReference: {fileID: 0}
    - target: {fileID: 8988387195635823133, guid: 92c5802379f5ca743bd6ae3b570b9cb8,
        type: 3}
      propertyPath: m_Layer
      value: 8
      objectReference: {fileID: 0}
    m_RemovedComponents: []
  m_SourcePrefab: {fileID: 100100000, guid: 92c5802379f5ca743bd6ae3b570b9cb8, type: 3}
