%YAML 1.1
%TAG !u! tag:unity3d.com,2011:
--- !u!1001 &5495504823131761223
PrefabInstance:
  m_ObjectHideFlags: 0
  serializedVersion: 2
  m_Modification:
    m_TransformParent: {fileID: 0}
    m_Modifications:
    - target: {fileID: -8751057284157019886, guid: 1d9d636916ee81e4bb9fa3c880fee24c,
        type: 3}
      propertyPath: m_Layer
      value: 8
      objectReference: {fileID: 0}
    - target: {fileID: -8679921383154817045, guid: 1d9d636916ee81e4bb9fa3c880fee24c,
        type: 3}
      propertyPath: m_LocalPosition.x
      value: 0
      objectReference: {fileID: 0}
    - target: {fileID: -8679921383154817045, guid: 1d9d636916ee81e4bb9fa3c880fee24c,
        type: 3}
      propertyPath: m_LocalPosition.y
      value: 0
      objectReference: {fileID: 0}
    - target: {fileID: -8679921383154817045, guid: 1d9d636916ee81e4bb9fa3c880fee24c,
        type: 3}
      propertyPath: m_LocalPosition.z
      value: 0
      objectReference: {fileID: 0}
    - target: {fileID: -8679921383154817045, guid: 1d9d636916ee81e4bb9fa3c880fee24c,
        type: 3}
      propertyPath: m_LocalRotation.x
      value: 0
      objectReference: {fileID: 0}
    - target: {fileID: -8679921383154817045, guid: 1d9d636916ee81e4bb9fa3c880fee24c,
        type: 3}
      propertyPath: m_LocalRotation.y
      value: 0
      objectReference: {fileID: 0}
    - target: {fileID: -8679921383154817045, guid: 1d9d636916ee81e4bb9fa3c880fee24c,
        type: 3}
      propertyPath: m_LocalRotation.z
      value: 0
      objectReference: {fileID: 0}
    - target: {fileID: -8679921383154817045, guid: 1d9d636916ee81e4bb9fa3c880fee24c,
        type: 3}
      propertyPath: m_LocalRotation.w
      value: 1
      objectReference: {fileID: 0}
    - target: {fileID: -8679921383154817045, guid: 1d9d636916ee81e4bb9fa3c880fee24c,
        type: 3}
      propertyPath: m_RootOrder
      value: 0
      objectReference: {fileID: 0}
    - target: {fileID: -8679921383154817045, guid: 1d9d636916ee81e4bb9fa3c880fee24c,
        type: 3}
      propertyPath: m_LocalEulerAnglesHint.x
      value: 0
      objectReference: {fileID: 0}
    - target: {fileID: -8679921383154817045, guid: 1d9d636916ee81e4bb9fa3c880fee24c,
        type: 3}
      propertyPath: m_LocalEulerAnglesHint.y
      value: 0
      objectReference: {fileID: 0}
    - target: {fileID: -8679921383154817045, guid: 1d9d636916ee81e4bb9fa3c880fee24c,
        type: 3}
      propertyPath: m_LocalEulerAnglesHint.z
      value: 0
      objectReference: {fileID: 0}
    - target: {fileID: -8118810121529289044, guid: 1d9d636916ee81e4bb9fa3c880fee24c,
        type: 3}
      propertyPath: m_Layer
      value: 8
      objectReference: {fileID: 0}
    - target: {fileID: -8109829993498575500, guid: 1d9d636916ee81e4bb9fa3c880fee24c,
        type: 3}
      propertyPath: m_Layer
      value: 8
      objectReference: {fileID: 0}
    - target: {fileID: -7973576822035291401, guid: 1d9d636916ee81e4bb9fa3c880fee24c,
        type: 3}
      propertyPath: m_Layer
      value: 8
      objectReference: {fileID: 0}
    - target: {fileID: -7491019037532673366, guid: 1d9d636916ee81e4bb9fa3c880fee24c,
        type: 3}
      propertyPath: m_Layer
      value: 8
      objectReference: {fileID: 0}
    - target: {fileID: -6979726983760187994, guid: 1d9d636916ee81e4bb9fa3c880fee24c,
        type: 3}
      propertyPath: m_Layer
      value: 8
      objectReference: {fileID: 0}
    - target: {fileID: -6828387315135884094, guid: 1d9d636916ee81e4bb9fa3c880fee24c,
        type: 3}
      propertyPath: m_Layer
      value: 8
      objectReference: {fileID: 0}
    - target: {fileID: -6748905521773789832, guid: 1d9d636916ee81e4bb9fa3c880fee24c,
        type: 3}
      propertyPath: m_Layer
      value: 8
      objectReference: {fileID: 0}
    - target: {fileID: -6591919036847234910, guid: 1d9d636916ee81e4bb9fa3c880fee24c,
        type: 3}
      propertyPath: m_Layer
      value: 8
      objectReference: {fileID: 0}
    - target: {fileID: -6272215494073746597, guid: 1d9d636916ee81e4bb9fa3c880fee24c,
        type: 3}
      propertyPath: m_Layer
      value: 8
      objectReference: {fileID: 0}
    - target: {fileID: -5917044731307735041, guid: 1d9d636916ee81e4bb9fa3c880fee24c,
        type: 3}
      propertyPath: m_Layer
      value: 8
      objectReference: {fileID: 0}
    - target: {fileID: -5711142747044813939, guid: 1d9d636916ee81e4bb9fa3c880fee24c,
        type: 3}
      propertyPath: m_Layer
      value: 8
      objectReference: {fileID: 0}
    - target: {fileID: -5512944345145251879, guid: 1d9d636916ee81e4bb9fa3c880fee24c,
        type: 3}
      propertyPath: m_Layer
      value: 8
      objectReference: {fileID: 0}
    - target: {fileID: -5316744022587207207, guid: 1d9d636916ee81e4bb9fa3c880fee24c,
        type: 3}
      propertyPath: m_Layer
      value: 8
      objectReference: {fileID: 0}
    - target: {fileID: -5197439168484089740, guid: 1d9d636916ee81e4bb9fa3c880fee24c,
        type: 3}
      propertyPath: m_Layer
      value: 8
      objectReference: {fileID: 0}
    - target: {fileID: -5156545506223501866, guid: 1d9d636916ee81e4bb9fa3c880fee24c,
        type: 3}
      propertyPath: m_Layer
      value: 8
      objectReference: {fileID: 0}
    - target: {fileID: -4911370744240963702, guid: 1d9d636916ee81e4bb9fa3c880fee24c,
        type: 3}
      propertyPath: m_Layer
      value: 8
      objectReference: {fileID: 0}
    - target: {fileID: -4790413443395810628, guid: 1d9d636916ee81e4bb9fa3c880fee24c,
        type: 3}
      propertyPath: m_Layer
      value: 8
      objectReference: {fileID: 0}
    - target: {fileID: -4605139135236910229, guid: 1d9d636916ee81e4bb9fa3c880fee24c,
        type: 3}
      propertyPath: m_Layer
      value: 8
      objectReference: {fileID: 0}
    - target: {fileID: -4177646719822907229, guid: 1d9d636916ee81e4bb9fa3c880fee24c,
        type: 3}
      propertyPath: m_Layer
      value: 8
      objectReference: {fileID: 0}
    - target: {fileID: -4170066379856185293, guid: 1d9d636916ee81e4bb9fa3c880fee24c,
        type: 3}
      propertyPath: m_Layer
      value: 8
      objectReference: {fileID: 0}
    - target: {fileID: -3418394693222694529, guid: 1d9d636916ee81e4bb9fa3c880fee24c,
        type: 3}
      propertyPath: m_Layer
      value: 8
      objectReference: {fileID: 0}
    - target: {fileID: -3250551708956488246, guid: 1d9d636916ee81e4bb9fa3c880fee24c,
        type: 3}
      propertyPath: m_Layer
      value: 8
      objectReference: {fileID: 0}
    - target: {fileID: -3196511607817033700, guid: 1d9d636916ee81e4bb9fa3c880fee24c,
        type: 3}
      propertyPath: m_Layer
      value: 8
      objectReference: {fileID: 0}
    - target: {fileID: -3060337547385479149, guid: 1d9d636916ee81e4bb9fa3c880fee24c,
        type: 3}
      propertyPath: m_Layer
      value: 8
      objectReference: {fileID: 0}
    - target: {fileID: -3031792663126716647, guid: 1d9d636916ee81e4bb9fa3c880fee24c,
        type: 3}
      propertyPath: m_Layer
      value: 8
      objectReference: {fileID: 0}
    - target: {fileID: -2833738688121053626, guid: 1d9d636916ee81e4bb9fa3c880fee24c,
        type: 3}
      propertyPath: m_Layer
      value: 8
      objectReference: {fileID: 0}
    - target: {fileID: -2803898974381156149, guid: 1d9d636916ee81e4bb9fa3c880fee24c,
        type: 3}
      propertyPath: m_Layer
      value: 8
      objectReference: {fileID: 0}
    - target: {fileID: -2563612296489143459, guid: 1d9d636916ee81e4bb9fa3c880fee24c,
        type: 3}
      propertyPath: m_Layer
      value: 8
      objectReference: {fileID: 0}
    - target: {fileID: -2331691389905086014, guid: 1d9d636916ee81e4bb9fa3c880fee24c,
        type: 3}
      propertyPath: m_Layer
      value: 8
      objectReference: {fileID: 0}
    - target: {fileID: -2241038364657408089, guid: 1d9d636916ee81e4bb9fa3c880fee24c,
        type: 3}
      propertyPath: m_Layer
      value: 8
      objectReference: {fileID: 0}
    - target: {fileID: -2231642194942318387, guid: 1d9d636916ee81e4bb9fa3c880fee24c,
        type: 3}
      propertyPath: m_Layer
      value: 8
      objectReference: {fileID: 0}
    - target: {fileID: -2199724362233354730, guid: 1d9d636916ee81e4bb9fa3c880fee24c,
        type: 3}
      propertyPath: m_Layer
      value: 8
      objectReference: {fileID: 0}
    - target: {fileID: -1581625248442925022, guid: 1d9d636916ee81e4bb9fa3c880fee24c,
        type: 3}
      propertyPath: m_Layer
      value: 8
      objectReference: {fileID: 0}
    - target: {fileID: -1287486779507740824, guid: 1d9d636916ee81e4bb9fa3c880fee24c,
        type: 3}
      propertyPath: m_Layer
      value: 8
      objectReference: {fileID: 0}
    - target: {fileID: -611744585659504391, guid: 1d9d636916ee81e4bb9fa3c880fee24c,
        type: 3}
      propertyPath: m_Layer
      value: 8
      objectReference: {fileID: 0}
    - target: {fileID: -222618938593250956, guid: 1d9d636916ee81e4bb9fa3c880fee24c,
        type: 3}
      propertyPath: m_Layer
      value: 8
      objectReference: {fileID: 0}
    - target: {fileID: -86660355763864230, guid: 1d9d636916ee81e4bb9fa3c880fee24c,
        type: 3}
      propertyPath: m_Layer
      value: 8
      objectReference: {fileID: 0}
    - target: {fileID: 59300527496025320, guid: 1d9d636916ee81e4bb9fa3c880fee24c,
        type: 3}
      propertyPath: m_Layer
      value: 8
      objectReference: {fileID: 0}
    - target: {fileID: 284106650744130405, guid: 1d9d636916ee81e4bb9fa3c880fee24c,
        type: 3}
      propertyPath: m_Layer
      value: 8
      objectReference: {fileID: 0}
    - target: {fileID: 392027698527439904, guid: 1d9d636916ee81e4bb9fa3c880fee24c,
        type: 3}
      propertyPath: m_Layer
      value: 10
      objectReference: {fileID: 0}
    - target: {fileID: 392027698527439904, guid: 1d9d636916ee81e4bb9fa3c880fee24c,
        type: 3}
      propertyPath: m_IsActive
      value: 1
      objectReference: {fileID: 0}
    - target: {fileID: 420677406842314795, guid: 1d9d636916ee81e4bb9fa3c880fee24c,
        type: 3}
      propertyPath: m_Layer
      value: 8
      objectReference: {fileID: 0}
    - target: {fileID: 430108200687226393, guid: 1d9d636916ee81e4bb9fa3c880fee24c,
        type: 3}
      propertyPath: m_Layer
      value: 8
      objectReference: {fileID: 0}
    - target: {fileID: 548384692302517688, guid: 1d9d636916ee81e4bb9fa3c880fee24c,
        type: 3}
      propertyPath: m_Layer
      value: 8
      objectReference: {fileID: 0}
    - target: {fileID: 665182872615661836, guid: 1d9d636916ee81e4bb9fa3c880fee24c,
        type: 3}
      propertyPath: m_Layer
      value: 8
      objectReference: {fileID: 0}
    - target: {fileID: 754768382608782825, guid: 1d9d636916ee81e4bb9fa3c880fee24c,
        type: 3}
      propertyPath: m_Layer
      value: 8
      objectReference: {fileID: 0}
    - target: {fileID: 906860925323602227, guid: 1d9d636916ee81e4bb9fa3c880fee24c,
        type: 3}
      propertyPath: m_Layer
      value: 8
      objectReference: {fileID: 0}
    - target: {fileID: 919132149155446097, guid: 1d9d636916ee81e4bb9fa3c880fee24c,
        type: 3}
      propertyPath: m_Name
      value: male_fit_clothes&body_rigged
      objectReference: {fileID: 0}
    - target: {fileID: 919132149155446097, guid: 1d9d636916ee81e4bb9fa3c880fee24c,
        type: 3}
      propertyPath: m_Layer
      value: 8
      objectReference: {fileID: 0}
    - target: {fileID: 1180127164541043522, guid: 1d9d636916ee81e4bb9fa3c880fee24c,
        type: 3}
      propertyPath: m_Layer
      value: 8
      objectReference: {fileID: 0}
    - target: {fileID: 1342948525764391870, guid: 1d9d636916ee81e4bb9fa3c880fee24c,
        type: 3}
      propertyPath: m_Layer
      value: 8
      objectReference: {fileID: 0}
    - target: {fileID: 1476800557446076497, guid: 1d9d636916ee81e4bb9fa3c880fee24c,
        type: 3}
      propertyPath: m_Layer
      value: 8
      objectReference: {fileID: 0}
    - target: {fileID: 1625658896843798618, guid: 1d9d636916ee81e4bb9fa3c880fee24c,
        type: 3}
      propertyPath: m_Layer
      value: 8
      objectReference: {fileID: 0}
    - target: {fileID: 1726527512867401859, guid: 1d9d636916ee81e4bb9fa3c880fee24c,
        type: 3}
      propertyPath: m_Layer
      value: 8
      objectReference: {fileID: 0}
    - target: {fileID: 1830959882068189617, guid: 1d9d636916ee81e4bb9fa3c880fee24c,
        type: 3}
      propertyPath: m_Layer
      value: 8
      objectReference: {fileID: 0}
    - target: {fileID: 2054608365940138687, guid: 1d9d636916ee81e4bb9fa3c880fee24c,
        type: 3}
      propertyPath: m_Layer
      value: 8
      objectReference: {fileID: 0}
    - target: {fileID: 2472186858389371150, guid: 1d9d636916ee81e4bb9fa3c880fee24c,
        type: 3}
      propertyPath: m_Layer
      value: 8
      objectReference: {fileID: 0}
    - target: {fileID: 2586761887155430313, guid: 1d9d636916ee81e4bb9fa3c880fee24c,
        type: 3}
      propertyPath: m_Layer
      value: 8
      objectReference: {fileID: 0}
    - target: {fileID: 2626715512951081392, guid: 1d9d636916ee81e4bb9fa3c880fee24c,
        type: 3}
      propertyPath: m_Layer
      value: 8
      objectReference: {fileID: 0}
    - target: {fileID: 2763248086728481898, guid: 1d9d636916ee81e4bb9fa3c880fee24c,
        type: 3}
      propertyPath: m_Layer
      value: 8
      objectReference: {fileID: 0}
    - target: {fileID: 2892416590767607493, guid: 1d9d636916ee81e4bb9fa3c880fee24c,
        type: 3}
      propertyPath: m_Layer
      value: 8
      objectReference: {fileID: 0}
    - target: {fileID: 3026522392604817644, guid: 1d9d636916ee81e4bb9fa3c880fee24c,
        type: 3}
      propertyPath: m_Layer
      value: 8
      objectReference: {fileID: 0}
    - target: {fileID: 3261424773943354937, guid: 1d9d636916ee81e4bb9fa3c880fee24c,
        type: 3}
      propertyPath: m_Layer
      value: 8
      objectReference: {fileID: 0}
    - target: {fileID: 3369336403580099778, guid: 1d9d636916ee81e4bb9fa3c880fee24c,
        type: 3}
      propertyPath: m_Layer
      value: 8
      objectReference: {fileID: 0}
    - target: {fileID: 3440663850312004499, guid: 1d9d636916ee81e4bb9fa3c880fee24c,
        type: 3}
      propertyPath: m_Layer
      value: 8
      objectReference: {fileID: 0}
    - target: {fileID: 3839226953010932475, guid: 1d9d636916ee81e4bb9fa3c880fee24c,
        type: 3}
      propertyPath: m_Layer
      value: 8
      objectReference: {fileID: 0}
    - target: {fileID: 4166634291182537770, guid: 1d9d636916ee81e4bb9fa3c880fee24c,
        type: 3}
      propertyPath: m_Layer
      value: 8
      objectReference: {fileID: 0}
    - target: {fileID: 4200615281311733738, guid: 1d9d636916ee81e4bb9fa3c880fee24c,
        type: 3}
      propertyPath: m_Layer
      value: 8
      objectReference: {fileID: 0}
    - target: {fileID: 4319198503479382729, guid: 1d9d636916ee81e4bb9fa3c880fee24c,
        type: 3}
      propertyPath: m_Layer
      value: 8
      objectReference: {fileID: 0}
    - target: {fileID: 4414127200717989924, guid: 1d9d636916ee81e4bb9fa3c880fee24c,
        type: 3}
      propertyPath: m_Layer
      value: 8
      objectReference: {fileID: 0}
    - target: {fileID: 4457118730529567611, guid: 1d9d636916ee81e4bb9fa3c880fee24c,
        type: 3}
      propertyPath: m_Layer
      value: 8
      objectReference: {fileID: 0}
    - target: {fileID: 5136908730744217784, guid: 1d9d636916ee81e4bb9fa3c880fee24c,
        type: 3}
      propertyPath: m_Layer
      value: 8
      objectReference: {fileID: 0}
    - target: {fileID: 5378663351793664120, guid: 1d9d636916ee81e4bb9fa3c880fee24c,
        type: 3}
      propertyPath: m_Layer
      value: 8
      objectReference: {fileID: 0}
    - target: {fileID: 5713941548437798767, guid: 1d9d636916ee81e4bb9fa3c880fee24c,
        type: 3}
      propertyPath: m_Layer
      value: 8
      objectReference: {fileID: 0}
    - target: {fileID: 5966074166800511893, guid: 1d9d636916ee81e4bb9fa3c880fee24c,
        type: 3}
      propertyPath: m_Layer
      value: 8
      objectReference: {fileID: 0}
    - target: {fileID: 6387719324680055074, guid: 1d9d636916ee81e4bb9fa3c880fee24c,
        type: 3}
      propertyPath: m_Layer
      value: 8
      objectReference: {fileID: 0}
    - target: {fileID: 6413615066927003240, guid: 1d9d636916ee81e4bb9fa3c880fee24c,
        type: 3}
      propertyPath: m_Layer
      value: 8
      objectReference: {fileID: 0}
    - target: {fileID: 6543646198283041317, guid: 1d9d636916ee81e4bb9fa3c880fee24c,
        type: 3}
      propertyPath: m_Layer
      value: 8
      objectReference: {fileID: 0}
    - target: {fileID: 6950137226260877016, guid: 1d9d636916ee81e4bb9fa3c880fee24c,
        type: 3}
      propertyPath: m_Layer
      value: 8
      objectReference: {fileID: 0}
    - target: {fileID: 6992881025861565200, guid: 1d9d636916ee81e4bb9fa3c880fee24c,
        type: 3}
      propertyPath: m_Layer
      value: 8
      objectReference: {fileID: 0}
    - target: {fileID: 7242993359035194598, guid: 1d9d636916ee81e4bb9fa3c880fee24c,
        type: 3}
      propertyPath: m_Layer
      value: 8
      objectReference: {fileID: 0}
    - target: {fileID: 7732131601650465306, guid: 1d9d636916ee81e4bb9fa3c880fee24c,
        type: 3}
      propertyPath: m_Layer
      value: 8
      objectReference: {fileID: 0}
    - target: {fileID: 7827974289711602006, guid: 1d9d636916ee81e4bb9fa3c880fee24c,
        type: 3}
      propertyPath: m_Layer
      value: 8
      objectReference: {fileID: 0}
    - target: {fileID: 7967103368951718119, guid: 1d9d636916ee81e4bb9fa3c880fee24c,
        type: 3}
      propertyPath: m_Layer
      value: 8
      objectReference: {fileID: 0}
    - target: {fileID: 7993049058290250128, guid: 1d9d636916ee81e4bb9fa3c880fee24c,
        type: 3}
      propertyPath: m_Layer
      value: 8
      objectReference: {fileID: 0}
    - target: {fileID: 8081611880471559644, guid: 1d9d636916ee81e4bb9fa3c880fee24c,
        type: 3}
      propertyPath: m_Layer
      value: 8
      objectReference: {fileID: 0}
    - target: {fileID: 8318035646901390857, guid: 1d9d636916ee81e4bb9fa3c880fee24c,
        type: 3}
      propertyPath: m_Layer
      value: 8
      objectReference: {fileID: 0}
    - target: {fileID: 8356538690890272372, guid: 1d9d636916ee81e4bb9fa3c880fee24c,
        type: 3}
      propertyPath: m_Layer
      value: 8
      objectReference: {fileID: 0}
    - target: {fileID: 8828430295518591420, guid: 1d9d636916ee81e4bb9fa3c880fee24c,
        type: 3}
      propertyPath: m_Layer
      value: 8
      objectReference: {fileID: 0}
    m_RemovedComponents: []
  m_SourcePrefab: {fileID: 100100000, guid: 1d9d636916ee81e4bb9fa3c880fee24c, type: 3}
